<svg xmlns="http://www.w3.org/2000/svg" width="31" height="23" viewBox="0 0 31 23">
    <defs>
        <linearGradient id="a" x1="50%" x2="50%" y1="100%" y2="0%">
            <stop offset="0%" stop-color="#3E9679"/>
            <stop offset="52.267%" stop-color="#4DA567"/>
            <stop offset="100%" stop-color="#58B25B"/>
        </linearGradient>
    </defs>
    <path fill="url(#a)" fill-rule="nonzero" d="M10.931.978c.43-.43 1.109-.43 1.54 0a1.086 1.086 0 0 1 0 1.524l-7.804 7.803h25.75c.6 0 1.092.477 1.092 1.077s-.492 1.093-1.093 1.093H4.667l7.803 7.789c.416.43.416 1.124 0 1.539-.43.43-1.108.43-1.539 0l-9.65-9.65a1.086 1.086 0 0 1 0-1.524l9.65-9.65z" transform="rotate(-180 16 11.5)"/>
</svg>
